\beamer@endinputifotherversion {3.36pt}
\headcommand {\slideentry {0}{0}{1}{1/1}{}{0}}
\headcommand {\beamer@framepages {1}{1}}
\headcommand {\slideentry {0}{0}{2}{2/2}{}{0}}
\headcommand {\beamer@framepages {2}{2}}
\headcommand {\sectionentry {1}{Zielsetzung}{3}{Zielsetzung}{0}}
\headcommand {\beamer@sectionpages {1}{2}}
\headcommand {\beamer@subsectionpages {1}{2}}
\headcommand {\slideentry {1}{0}{1}{3/3}{}{0}}
\headcommand {\beamer@framepages {3}{3}}
\headcommand {\sectionentry {2}{Technologien}{4}{Technologien}{0}}
\headcommand {\beamer@sectionpages {3}{3}}
\headcommand {\beamer@subsectionpages {3}{3}}
\headcommand {\slideentry {2}{0}{1}{4/4}{}{0}}
\headcommand {\beamer@framepages {4}{4}}
\headcommand {\slideentry {2}{0}{2}{5/5}{}{0}}
\headcommand {\beamer@framepages {5}{5}}
\headcommand {\sectionentry {3}{Datenquellen und Extraktion}{6}{Datenquellen und Extraktion}{0}}
\headcommand {\beamer@sectionpages {4}{5}}
\headcommand {\beamer@subsectionpages {4}{5}}
\headcommand {\slideentry {3}{0}{1}{6/6}{}{0}}
\headcommand {\beamer@framepages {6}{6}}
\headcommand {\slideentry {3}{0}{2}{7/8}{}{0}}
\headcommand {\beamer@framepages {7}{8}}
\headcommand {\slideentry {3}{0}{3}{9/9}{}{0}}
\headcommand {\beamer@framepages {9}{9}}
\headcommand {\slideentry {3}{0}{4}{10/10}{}{0}}
\headcommand {\beamer@framepages {10}{10}}
\headcommand {\slideentry {3}{0}{5}{11/11}{}{0}}
\headcommand {\beamer@framepages {11}{11}}
\headcommand {\slideentry {3}{0}{6}{12/12}{}{0}}
\headcommand {\beamer@framepages {12}{12}}
\headcommand {\slideentry {3}{0}{7}{13/13}{}{0}}
\headcommand {\beamer@framepages {13}{13}}
\headcommand {\sectionentry {4}{Key Phrase Extraction}{14}{Key Phrase Extraction}{0}}
\headcommand {\beamer@sectionpages {6}{13}}
\headcommand {\beamer@subsectionpages {6}{13}}
\headcommand {\slideentry {4}{0}{1}{14/14}{}{0}}
\headcommand {\beamer@framepages {14}{14}}
\headcommand {\slideentry {4}{0}{2}{15/15}{}{0}}
\headcommand {\beamer@framepages {15}{15}}
\headcommand {\slideentry {4}{0}{3}{16/16}{}{0}}
\headcommand {\beamer@framepages {16}{16}}
\headcommand {\sectionentry {5}{Live Demo}{17}{Live Demo}{0}}
\headcommand {\beamer@sectionpages {14}{16}}
\headcommand {\beamer@subsectionpages {14}{16}}
\headcommand {\slideentry {5}{0}{1}{17/17}{}{0}}
\headcommand {\beamer@framepages {17}{17}}
\headcommand {\sectionentry {6}{Zusammenfassung}{18}{Zusammenfassung}{0}}
\headcommand {\beamer@sectionpages {17}{17}}
\headcommand {\beamer@subsectionpages {17}{17}}
\headcommand {\slideentry {6}{0}{1}{18/18}{}{0}}
\headcommand {\beamer@framepages {18}{18}}
\headcommand {\beamer@partpages {1}{18}}
\headcommand {\beamer@subsectionpages {18}{18}}
\headcommand {\beamer@sectionpages {18}{18}}
\headcommand {\beamer@documentpages {18}}
\headcommand {\def \inserttotalframenumber {15}}
