\beamer@endinputifotherversion {3.36pt}
\beamer@sectionintoc {1}{Zielsetzung}{3}{0}{1}
\beamer@sectionintoc {2}{Technologien}{4}{0}{2}
\beamer@sectionintoc {3}{Datenquellen und Extraktion}{6}{0}{3}
\beamer@sectionintoc {4}{Key Phrase Extraction}{14}{0}{4}
\beamer@sectionintoc {5}{Live Demo}{17}{0}{5}
\beamer@sectionintoc {6}{Zusammenfassung}{18}{0}{6}
