\relax 
\providecommand\hyper@newdestlabel[2]{}
\providecommand\HyperFirstAtBeginDocument{\AtBeginDocument}
\HyperFirstAtBeginDocument{\ifx\hyper@anchor\@undefined
\global\let\oldcontentsline\contentsline
\gdef\contentsline#1#2#3#4{\oldcontentsline{#1}{#2}{#3}}
\global\let\oldnewlabel\newlabel
\gdef\newlabel#1#2{\newlabelxx{#1}#2}
\gdef\newlabelxx#1#2#3#4#5#6{\oldnewlabel{#1}{{#2}{#3}}}
\AtEndDocument{\ifx\hyper@anchor\@undefined
\let\contentsline\oldcontentsline
\let\newlabel\oldnewlabel
\fi}
\fi}
\global\let\hyper@last\relax 
\gdef\HyperFirstAtBeginDocument#1{#1}
\providecommand\HyField@AuxAddToFields[1]{}
\providecommand\HyField@AuxAddToCoFields[2]{}
\providecommand \oddpage@label [2]{}
\@writefile{toc}{\beamer@endinputifotherversion {3.36pt}}
\@writefile{nav}{\beamer@endinputifotherversion {3.36pt}}
\@writefile{nav}{\headcommand {\slideentry {0}{0}{1}{1/1}{}{0}}}
\@writefile{nav}{\headcommand {\beamer@framepages {1}{1}}}
\@writefile{nav}{\headcommand {\slideentry {0}{0}{2}{2/2}{}{0}}}
\@writefile{nav}{\headcommand {\beamer@framepages {2}{2}}}
\@writefile{toc}{\beamer@sectionintoc {1}{Zielsetzung}{3}{0}{1}}
\@writefile{nav}{\headcommand {\sectionentry {1}{Zielsetzung}{3}{Zielsetzung}{0}}}
\@writefile{nav}{\headcommand {\beamer@sectionpages {1}{2}}}
\@writefile{nav}{\headcommand {\beamer@subsectionpages {1}{2}}}
\@writefile{nav}{\headcommand {\slideentry {1}{0}{1}{3/3}{}{0}}}
\@writefile{nav}{\headcommand {\beamer@framepages {3}{3}}}
\@writefile{toc}{\beamer@sectionintoc {2}{Technologien}{4}{0}{2}}
\@writefile{nav}{\headcommand {\sectionentry {2}{Technologien}{4}{Technologien}{0}}}
\@writefile{nav}{\headcommand {\beamer@sectionpages {3}{3}}}
\@writefile{nav}{\headcommand {\beamer@subsectionpages {3}{3}}}
\@writefile{nav}{\headcommand {\slideentry {2}{0}{1}{4/4}{}{0}}}
\@writefile{nav}{\headcommand {\beamer@framepages {4}{4}}}
\@writefile{nav}{\headcommand {\slideentry {2}{0}{2}{5/5}{}{0}}}
\@writefile{nav}{\headcommand {\beamer@framepages {5}{5}}}
\@writefile{toc}{\beamer@sectionintoc {3}{Datenquellen und Extraktion}{6}{0}{3}}
\@writefile{nav}{\headcommand {\sectionentry {3}{Datenquellen und Extraktion}{6}{Datenquellen und Extraktion}{0}}}
\@writefile{nav}{\headcommand {\beamer@sectionpages {4}{5}}}
\@writefile{nav}{\headcommand {\beamer@subsectionpages {4}{5}}}
\@writefile{nav}{\headcommand {\slideentry {3}{0}{1}{6/6}{}{0}}}
\@writefile{nav}{\headcommand {\beamer@framepages {6}{6}}}
\@writefile{nav}{\headcommand {\slideentry {3}{0}{2}{7/8}{}{0}}}
\@writefile{nav}{\headcommand {\beamer@framepages {7}{8}}}
\@writefile{nav}{\headcommand {\slideentry {3}{0}{3}{9/9}{}{0}}}
\@writefile{nav}{\headcommand {\beamer@framepages {9}{9}}}
\@writefile{nav}{\headcommand {\slideentry {3}{0}{4}{10/10}{}{0}}}
\@writefile{nav}{\headcommand {\beamer@framepages {10}{10}}}
\@writefile{nav}{\headcommand {\slideentry {3}{0}{5}{11/11}{}{0}}}
\@writefile{nav}{\headcommand {\beamer@framepages {11}{11}}}
\@writefile{nav}{\headcommand {\slideentry {3}{0}{6}{12/12}{}{0}}}
\@writefile{nav}{\headcommand {\beamer@framepages {12}{12}}}
\@writefile{nav}{\headcommand {\slideentry {3}{0}{7}{13/13}{}{0}}}
\@writefile{nav}{\headcommand {\beamer@framepages {13}{13}}}
\@writefile{toc}{\beamer@sectionintoc {4}{Key Phrase Extraction}{14}{0}{4}}
\@writefile{nav}{\headcommand {\sectionentry {4}{Key Phrase Extraction}{14}{Key Phrase Extraction}{0}}}
\@writefile{nav}{\headcommand {\beamer@sectionpages {6}{13}}}
\@writefile{nav}{\headcommand {\beamer@subsectionpages {6}{13}}}
\@writefile{nav}{\headcommand {\slideentry {4}{0}{1}{14/14}{}{0}}}
\@writefile{nav}{\headcommand {\beamer@framepages {14}{14}}}
\@writefile{nav}{\headcommand {\slideentry {4}{0}{2}{15/15}{}{0}}}
\@writefile{nav}{\headcommand {\beamer@framepages {15}{15}}}
\@writefile{nav}{\headcommand {\slideentry {4}{0}{3}{16/16}{}{0}}}
\@writefile{nav}{\headcommand {\beamer@framepages {16}{16}}}
\@writefile{toc}{\beamer@sectionintoc {5}{Live Demo}{17}{0}{5}}
\@writefile{nav}{\headcommand {\sectionentry {5}{Live Demo}{17}{Live Demo}{0}}}
\@writefile{nav}{\headcommand {\beamer@sectionpages {14}{16}}}
\@writefile{nav}{\headcommand {\beamer@subsectionpages {14}{16}}}
\@writefile{nav}{\headcommand {\slideentry {5}{0}{1}{17/17}{}{0}}}
\@writefile{nav}{\headcommand {\beamer@framepages {17}{17}}}
\@writefile{toc}{\beamer@sectionintoc {6}{Zusammenfassung}{18}{0}{6}}
\@writefile{nav}{\headcommand {\sectionentry {6}{Zusammenfassung}{18}{Zusammenfassung}{0}}}
\@writefile{nav}{\headcommand {\beamer@sectionpages {17}{17}}}
\@writefile{nav}{\headcommand {\beamer@subsectionpages {17}{17}}}
\@writefile{nav}{\headcommand {\slideentry {6}{0}{1}{18/18}{}{0}}}
\@writefile{nav}{\headcommand {\beamer@framepages {18}{18}}}
\@writefile{nav}{\headcommand {\beamer@partpages {1}{18}}}
\@writefile{nav}{\headcommand {\beamer@subsectionpages {18}{18}}}
\@writefile{nav}{\headcommand {\beamer@sectionpages {18}{18}}}
\@writefile{nav}{\headcommand {\beamer@documentpages {18}}}
\@writefile{nav}{\headcommand {\def \inserttotalframenumber {15}}}
