\relax 
\providecommand\hyper@newdestlabel[2]{}
\catcode `"\active 
\providecommand\HyperFirstAtBeginDocument{\AtBeginDocument}
\HyperFirstAtBeginDocument{\ifx\hyper@anchor\@undefined
\global\let\oldcontentsline\contentsline
\gdef\contentsline#1#2#3#4{\oldcontentsline{#1}{#2}{#3}}
\global\let\oldnewlabel\newlabel
\gdef\newlabel#1#2{\newlabelxx{#1}#2}
\gdef\newlabelxx#1#2#3#4#5#6{\oldnewlabel{#1}{{#2}{#3}}}
\AtEndDocument{\ifx\hyper@anchor\@undefined
\let\contentsline\oldcontentsline
\let\newlabel\oldnewlabel
\fi}
\fi}
\global\let\hyper@last\relax 
\gdef\HyperFirstAtBeginDocument#1{#1}
\providecommand\HyField@AuxAddToFields[1]{}
\providecommand\HyField@AuxAddToCoFields[2]{}
\abx@aux@sortscheme{nty}
\@writefile{toc}{\boolfalse {citerequest}\boolfalse {citetracker}\boolfalse {pagetracker}\boolfalse {backtracker}\relax }
\@writefile{lof}{\boolfalse {citerequest}\boolfalse {citetracker}\boolfalse {pagetracker}\boolfalse {backtracker}\relax }
\@writefile{lot}{\boolfalse {citerequest}\boolfalse {citetracker}\boolfalse {pagetracker}\boolfalse {backtracker}\relax }
\select@language{ngerman}
\@writefile{toc}{\defcounter {refsection}{0}\relax }\@writefile{toc}{\select@language{ngerman}}
\@writefile{lof}{\defcounter {refsection}{0}\relax }\@writefile{lof}{\select@language{ngerman}}
\@writefile{lot}{\defcounter {refsection}{0}\relax }\@writefile{lot}{\select@language{ngerman}}
\@writefile{toc}{\defcounter {refsection}{0}\relax }\@writefile{toc}{\contentsline {section}{\numberline {1}Motivation}{1}{section.1}}
\newlabel{sec:motivation}{{1}{1}{Motivation}{section.1}{}}
\@writefile{toc}{\defcounter {refsection}{0}\relax }\@writefile{toc}{\contentsline {section}{\numberline {2}Datenquellen}{1}{section.2}}
\@writefile{toc}{\defcounter {refsection}{0}\relax }\@writefile{toc}{\contentsline {subsection}{\numberline {2.1}Verwendete Datenquellen}{1}{subsection.2.1}}
\newlabel{sec:vDatenquellen}{{2.1}{1}{Verwendete Datenquellen}{subsection.2.1}{}}
\@writefile{toc}{\defcounter {refsection}{0}\relax }\@writefile{toc}{\contentsline {subsection}{\numberline {2.2}Nicht verwendete Datenquellen}{3}{subsection.2.2}}
\newlabel{sec:NichtVerwendeteDatenquellen}{{2.2}{3}{Nicht verwendete Datenquellen}{subsection.2.2}{}}
\@writefile{toc}{\defcounter {refsection}{0}\relax }\@writefile{toc}{\contentsline {section}{\numberline {3}Verwendete Technologien}{4}{section.3}}
\@writefile{toc}{\defcounter {refsection}{0}\relax }\@writefile{toc}{\contentsline {subsection}{\numberline {3.1}Preprocessing}{4}{subsection.3.1}}
\@writefile{toc}{\defcounter {refsection}{0}\relax }\@writefile{toc}{\contentsline {subsection}{\numberline {3.2}Backend}{6}{subsection.3.2}}
\@writefile{toc}{\defcounter {refsection}{0}\relax }\@writefile{toc}{\contentsline {subsection}{\numberline {3.3}Frontend}{6}{subsection.3.3}}
\@writefile{toc}{\defcounter {refsection}{0}\relax }\@writefile{toc}{\contentsline {subsection}{\numberline {3.4}Schnittstelle}{6}{subsection.3.4}}
\newlabel{sec:schnittstelle}{{3.4}{6}{Schnittstelle}{subsection.3.4}{}}
\@writefile{toc}{\defcounter {refsection}{0}\relax }\@writefile{toc}{\contentsline {subsection}{\numberline {3.5}Organisation und Formales}{6}{subsection.3.5}}
\@writefile{toc}{\defcounter {refsection}{0}\relax }\@writefile{toc}{\contentsline {section}{\numberline {4}Textanalyse}{7}{section.4}}
\newlabel{sec:textanalyse}{{4}{7}{Textanalyse}{section.4}{}}
\@writefile{toc}{\defcounter {refsection}{0}\relax }\@writefile{toc}{\contentsline {subsection}{\numberline {4.1}RAKE}{7}{subsection.4.1}}
\@writefile{toc}{\defcounter {refsection}{0}\relax }\@writefile{toc}{\contentsline {subsection}{\numberline {4.2}Implementierung und Ergebnisse}{8}{subsection.4.2}}
\@writefile{lot}{\defcounter {refsection}{0}\relax }\@writefile{lot}{\contentsline {table}{\numberline {1}{\ignorespaces Negative Beispiele der Phrasenextraktion \relax }}{8}{table.caption.2}}
\providecommand*\caption@xref[2]{\@setref\relax\@undefined{#1}}
\newlabel{table:neg_pe}{{1}{8}{Negative Beispiele der Phrasenextraktion \relax }{table.caption.2}{}}
\@writefile{lot}{\defcounter {refsection}{0}\relax }\@writefile{lot}{\contentsline {table}{\numberline {2}{\ignorespaces Positive Beispiele der Phrasenextraktion \relax }}{8}{table.caption.3}}
\newlabel{table:pos_pe}{{2}{8}{Positive Beispiele der Phrasenextraktion \relax }{table.caption.3}{}}
\@writefile{toc}{\defcounter {refsection}{0}\relax }\@writefile{toc}{\contentsline {section}{\numberline {5}Verwendung von BIM}{9}{section.5}}
\@writefile{toc}{\defcounter {refsection}{0}\relax }\@writefile{toc}{\contentsline {subsection}{\numberline {5.1}Anwendungsbezogene Aspekte}{9}{subsection.5.1}}
\@writefile{lof}{\defcounter {refsection}{0}\relax }\@writefile{lof}{\contentsline {figure}{\numberline {1}{\ignorespaces Screenshot der entstandenen Website f\IeC {\"u}r die Detailansicht eines Shootings\relax }}{9}{figure.caption.4}}
\newlabel{fig:screenshot_bim_detailsView}{{1}{9}{Screenshot der entstandenen Website für die Detailansicht eines Shootings\relax }{figure.caption.4}{}}
\@writefile{toc}{\defcounter {refsection}{0}\relax }\@writefile{toc}{\contentsline {subsection}{\numberline {5.2}Technische Aspekte}{10}{subsection.5.2}}
\@writefile{toc}{\defcounter {refsection}{0}\relax }\@writefile{toc}{\contentsline {section}{\numberline {6}Aufgetretene Probleme}{10}{section.6}}
\@writefile{toc}{\defcounter {refsection}{0}\relax }\@writefile{toc}{\contentsline {section}{\numberline {7}Fazit \& Ausblick}{11}{section.7}}
\newlabel{LastPageBeforeRefs}{{7}{11}{Fazit \& Ausblick}{section.7}{}}
