\beamer@endinputifotherversion {3.36pt}
\beamer@sectionintoc {1}{Zielsetzung}{3}{0}{1}
\beamer@sectionintoc {2}{Datenquellen und Extraktion}{4}{0}{2}
\beamer@sectionintoc {3}{Technologien}{11}{0}{3}
\beamer@sectionintoc {4}{Live Demo}{12}{0}{4}
\beamer@sectionintoc {5}{Ausblick}{13}{0}{5}
